----------------------------------------------------------------------------------------------------

/

.gitignore ( Listo NV )
Bitacora Hielos del Sur.txt NV ->
README ( Listo NV )

----------------------------------------------------------------------------------------------------

/templates/hielosdelsur/

index.html ( Listo NV )
index.php NV ->
templateDetails.xml ( Listo NV )

----------------------------------------------------------------------------------------------------

/templates/hielosdelsur/css/

index.html ( Listo NV )
template.css NV ->

----------------------------------------------------------------------------------------------------

/templates/hielosdelsur/css/fonts/

index.html ( Listo NV )

----------------------------------------------------------------------------------------------------

/templates/hielosdelsur/html/

index.html ( Listo NV )
modules.php ( Listo NV )

----------------------------------------------------------------------------------------------------

/templates/hielosdelsur/images/

index.html ( Listo NV )

----------------------------------------------------------------------------------------------------

/templates/hielosdelsur/js/

index.html ( Listo NV )

----------------------------------------------------------------------------------------------------

/templates/hielosdelsur/js/bootstrap/

index.html ( Listo NV )

----------------------------------------------------------------------------------------------------

/templates/hielosdelsur/js/bootstrap/css/

index.html ( Listo NV )

----------------------------------------------------------------------------------------------------

/templates/hielosdelsur/js/bootstrap/fonts/

index.html ( Listo NV )

----------------------------------------------------------------------------------------------------

/templates/hielosdelsur/js/bootstrap/js/

index.html ( Listo NV )

----------------------------------------------------------------------------------------------------

/templates/hielosdelsur/js/jquery/

index.html ( Listo NV )
scripts.js ( Listo NV )

----------------------------------------------------------------------------------------------------

/templates/hielosdelsur/js/jquery/fancybox/

index.html ( Listo NV )

----------------------------------------------------------------------------------------------------

/templates/hielosdelsur/js/jquery/fancybox/helpers/

index.html ( Listo NV )

----------------------------------------------------------------------------------------------------

/templates/hielosdelsur/language/

index.html ( Listo NV )

----------------------------------------------------------------------------------------------------

/templates/hielosdelsur/swf/

index.html ( Listo NV )

----------------------------------------------------------------------------------------------------